%YAML 1.1
%TAG !u! tag:unity3d.com,2011:
--- !u!114 &11400000
MonoBehaviour:
  m_ObjectHideFlags: 0
  m_CorrespondingSourceObject: {fileID: 0}
  m_PrefabInstance: {fileID: 0}
  m_PrefabAsset: {fileID: 0}
  m_GameObject: {fileID: 0}
  m_Enabled: 1
  m_EditorHideFlags: 0
  m_Script: {fileID: 11500000, guid: 14d6c179aac209e46a94c7e45d4f28ab, type: 3}
  m_Name: 2_MaskBehaviourData 0
  m_EditorClassIdentifier: 
  Time: 0
  OrbitTag: 0
  ID: 1
  MaskTargets:
  - {fileID: 11400000, guid: 84bee764cb88b654f881a05ec59c9747, type: 2}
  AngularAccelerationTime: 2
  AngularMaxSpeed: 0
  AngularDecelerationTime: 3
  isSetup: 1
  SetupRadius: 2
  HasDeltaRadius: 0
  FinalRadius: 6
  TravelTime: 2
  OrbitMoveToEase: 0
