%YAML 1.1
%TAG !u! tag:unity3d.com,2011:
--- !u!114 &11400000
MonoBehaviour:
  m_ObjectHideFlags: 0
  m_CorrespondingSourceObject: {fileID: 0}
  m_PrefabInstance: {fileID: 0}
  m_PrefabAsset: {fileID: 0}
  m_GameObject: {fileID: 0}
  m_Enabled: 1
  m_EditorHideFlags: 0
  m_Script: {fileID: 11500000, guid: d148cdeed6aa2af41ad59f19f1e293e8, type: 3}
  m_Name: LW_02_ChargeAcceleration
  m_EditorClassIdentifier: 
  Time: 0
  OrbitTag: 0
  isAnticipating: 0
  Target: {fileID: 11400000, guid: 320bf9f104a0b814481ec323e5fa955a, type: 2}
  hasInitialSpeed: 0
  initialSpeed: 0
  TimeAcceleration: 0.25
  MaxSpeed: 40
  DynamicDrag: 0.9864543
  lookAtForward: 0
  Emitter: {fileID: 0}
  BulletData: []
