%YAML 1.1
%TAG !u! tag:unity3d.com,2011:
--- !u!114 &11400000
MonoBehaviour:
  m_ObjectHideFlags: 0
  m_CorrespondingSourceObject: {fileID: 0}
  m_PrefabInstance: {fileID: 0}
  m_PrefabAsset: {fileID: 0}
  m_GameObject: {fileID: 0}
  m_Enabled: 1
  m_EditorHideFlags: 0
  m_Script: {fileID: 11500000, guid: d148cdeed6aa2af41ad59f19f1e293e8, type: 3}
  m_Name: MT_Chase
  m_EditorClassIdentifier: 
  Time: 0
  OrbitTag: 2
  Target: {fileID: 11400000, guid: 320bf9f104a0b814481ec323e5fa955a, type: 2}
  TimeAcceleration: 0.3
  MaxSpeed: 18
  DynamicDrag: 0.9864543
  Emitter: {fileID: 11400000, guid: 2a8cbe184a283ca489e356e83cbc6883, type: 2}
  BulletData:
  - {fileID: 11400000, guid: d70e0a205112ecb41b515e26074bd2f9, type: 2}
  - {fileID: 11400000, guid: 0d6e91f9d111e3f4b91bcebb6a2d7626, type: 2}
