%YAML 1.1
%TAG !u! tag:unity3d.com,2011:
--- !u!114 &11400000
MonoBehaviour:
  m_ObjectHideFlags: 0
  m_CorrespondingSourceObject: {fileID: 0}
  m_PrefabInstance: {fileID: 0}
  m_PrefabAsset: {fileID: 0}
  m_GameObject: {fileID: 0}
  m_Enabled: 1
  m_EditorHideFlags: 0
  m_Script: {fileID: 11500000, guid: c1fa9de4cf9a82e4ebca7f4ee6483bb9, type: 3}
  m_Name: GZ_AttackOrbitData 1
  m_EditorClassIdentifier: 
  minAttackRange: 3
  maxAttackRange: 21
  AttackVelocity: 75
  AttackAngle: 120
  AttackEase: 16
