%YAML 1.1
%TAG !u! tag:unity3d.com,2011:
--- !u!114 &11400000
MonoBehaviour:
  m_ObjectHideFlags: 0
  m_CorrespondingSourceObject: {fileID: 0}
  m_PrefabInstance: {fileID: 0}
  m_PrefabAsset: {fileID: 0}
  m_GameObject: {fileID: 0}
  m_Enabled: 1
  m_EditorHideFlags: 0
  m_Script: {fileID: 11500000, guid: 8dc24604c90bf4a4fbecf065a41f4986, type: 3}
  m_Name: LW_MoTo_OnChase
  m_EditorClassIdentifier: 
  Time: 0
  OrbitTag: 0
  Target: {fileID: 0}
  MaxSpeed: 32
  TimeAcceleration: 0.28
  HasAcceleration: 1
  AddToVelocity: 0
