%YAML 1.1
%TAG !u! tag:unity3d.com,2011:
--- !u!21 &2100000
Material:
  serializedVersion: 6
  m_ObjectHideFlags: 0
  m_CorrespondingSourceObject: {fileID: 0}
  m_PrefabInstance: {fileID: 0}
  m_PrefabAsset: {fileID: 0}
  m_Name: Spiked_Ball
  m_Shader: {fileID: 4800000, guid: 9b4e30a4f595b4b41a9c7886c87d4180, type: 3}
  m_ShaderKeywords: 
  m_LightmapFlags: 4
  m_EnableInstancingVariants: 0
  m_DoubleSidedGI: 0
  m_CustomRenderQueue: -1
  stringTagMap:
    MotionVector: User
  disabledShaderPasses:
  - MOTIONVECTORS
  m_SavedProperties:
    serializedVersion: 3
    m_TexEnvs:
    - Texture2D_19526992:
        m_Texture: {fileID: 0}
        m_Scale: {x: 1, y: 1}
        m_Offset: {x: 0, y: 0}
    - Texture2D_7E5F51CC:
        m_Texture: {fileID: 2800000, guid: 35c7fa7bdd3db7847981f9255b9cf0ff, type: 3}
        m_Scale: {x: 1, y: 1}
        m_Offset: {x: 0, y: 0}
    - Texture2D_C724676A:
        m_Texture: {fileID: 2800000, guid: 1675ba908681dab47a260258c6fb3a38, type: 3}
        m_Scale: {x: 1, y: 1}
        m_Offset: {x: 0, y: 0}
    m_Floats:
    - Vector1_962BB364: 25.22
    - Vector1_B5918E50: 28.4
    - Vector1_BA580F47: 12.9
    m_Colors:
    - Color_D4A4A46C: {r: 0.42352942, g: 0.12549022, b: 0.2721774, a: 1}
    - Color_D95BF73F: {r: 1, g: 0, b: 0.037246227, a: 1}
