%YAML 1.1
%TAG !u! tag:unity3d.com,2011:
--- !u!114 &11400000
MonoBehaviour:
  m_ObjectHideFlags: 0
  m_CorrespondingSourceObject: {fileID: 0}
  m_PrefabInstance: {fileID: 0}
  m_PrefabAsset: {fileID: 0}
  m_GameObject: {fileID: 0}
  m_Enabled: 1
  m_EditorHideFlags: 0
  m_Script: {fileID: 11500000, guid: 8dc24604c90bf4a4fbecf065a41f4986, type: 3}
  m_Name: MT_MoTo_Charge
  m_EditorClassIdentifier: 
  Time: 0
  OrbitTag: 5
  Target: {fileID: 11400000, guid: 320bf9f104a0b814481ec323e5fa955a, type: 2}
  TimeAcceleration: 0.35
  SetInitialSpeed: 0
  InitialSpeed: 0
  MaxSpeed: 45
  HasAcceleration: 1
  AddToVelocity: 0
  BendingSpeed: 0
  Emitter: {fileID: 0}
  BulletData: []
