%YAML 1.1
%TAG !u! tag:unity3d.com,2011:
--- !u!21 &2100000
Material:
  serializedVersion: 6
  m_ObjectHideFlags: 0
  m_CorrespondingSourceObject: {fileID: 0}
  m_PrefabInstance: {fileID: 0}
  m_PrefabAsset: {fileID: 0}
  m_Name: M_Waterfall 6
  m_Shader: {fileID: 4800000, guid: 5ffdca0707eeae941866236b66605992, type: 3}
  m_ShaderKeywords: 
  m_LightmapFlags: 4
  m_EnableInstancingVariants: 0
  m_DoubleSidedGI: 0
  m_CustomRenderQueue: -1
  stringTagMap:
    MotionVector: User
  disabledShaderPasses:
  - MOTIONVECTORS
  m_SavedProperties:
    serializedVersion: 3
    m_TexEnvs: []
    m_Floats:
    - Vector1_3B7A203B: 16.1
    - Vector1_B3A6ABD7: 0.54
    - Vector1_DDB672E8: 0.13
    - Vector1_DEFD524B: 0.01
    - Vector1_EF252E64: -5.7
    - Vector1_F8D20B4D: 14.27
    - Vector1_FC94B5F8: 3.4
    m_Colors:
    - Color_62ED35C5: {r: 0.18640976, g: 0.6698113, b: 0.5173413, a: 0.2784314}
    - Vector2_F0730670: {r: 0, g: 0.3, b: 0, a: 0}
