%YAML 1.1
%TAG !u! tag:unity3d.com,2011:
--- !u!114 &11400000
MonoBehaviour:
  m_ObjectHideFlags: 0
  m_CorrespondingSourceObject: {fileID: 0}
  m_PrefabInstance: {fileID: 0}
  m_PrefabAsset: {fileID: 0}
  m_GameObject: {fileID: 0}
  m_Enabled: 1
  m_EditorHideFlags: 0
  m_Script: {fileID: 11500000, guid: 8dc24604c90bf4a4fbecf065a41f4986, type: 3}
  m_Name: LW_02_MoTo_Dash
  m_EditorClassIdentifier: 
  Time: 0
  OrbitTag: 0
  Target: {fileID: 0}
  SetInitialSpeed: 1
  InitialSpeed: 36
  TimeAcceleration: 0.1
  MaxSpeed: 36
  lookAtForward: 0
  AddToVelocity: 0
  BendingSpeed: 30
  isZigZagging: 0
  zigZagRotationFrequency: 0.14
  zigZagAngleRange: 30
  Emitter: {fileID: 0}
  BulletData: []
