%YAML 1.1
%TAG !u! tag:unity3d.com,2011:
--- !u!114 &11400000
MonoBehaviour:
  m_ObjectHideFlags: 0
  m_CorrespondingSourceObject: {fileID: 0}
  m_PrefabInstance: {fileID: 0}
  m_PrefabAsset: {fileID: 0}
  m_GameObject: {fileID: 0}
  m_Enabled: 1
  m_EditorHideFlags: 0
  m_Script: {fileID: 11500000, guid: c5c80ca171136c24ba4cb364c1883eab, type: 3}
  m_Name: GZ_Boun_Vulnerable
  m_EditorClassIdentifier: 
  Time: 0.0168493
  OrbitTag: 8
  impactFreeze: 0
  shakeMagnitude: 5
  impulseDeltaTime: 0.02
  kinetikEnergyLoss: 0.838
  surfaceFriction: 0.05
  strength: 1
  duration: 0.2
  speed: 15
  noisePercent: 0
  dampingPercent: 0.5
  rotationPercent: 0
  xScale:
    serializedVersion: 2
    m_Curve: []
    m_PreInfinity: 2
    m_PostInfinity: 2
    m_RotationOrder: 4
  zScale:
    serializedVersion: 2
    m_Curve: []
    m_PreInfinity: 2
    m_PostInfinity: 2
    m_RotationOrder: 4
