%YAML 1.1
%TAG !u! tag:unity3d.com,2011:
--- !u!21 &2100000
Material:
  serializedVersion: 6
  m_ObjectHideFlags: 0
  m_CorrespondingSourceObject: {fileID: 0}
  m_PrefabInstance: {fileID: 0}
  m_PrefabAsset: {fileID: 0}
  m_Name: SE_nuovo
  m_Shader: {fileID: 4800000, guid: 8d295e56b8d0bff41958fdcb60c3db2f, type: 3}
  m_ShaderKeywords: 
  m_LightmapFlags: 4
  m_EnableInstancingVariants: 0
  m_DoubleSidedGI: 0
  m_CustomRenderQueue: -1
  stringTagMap:
    MotionVector: User
  disabledShaderPasses:
  - MOTIONVECTORS
  m_SavedProperties:
    serializedVersion: 3
    m_TexEnvs:
    - Texture2D_24F44152:
        m_Texture: {fileID: 2800000, guid: aba5b6dd8974463489c629f2d5021e7b, type: 3}
        m_Scale: {x: 1, y: 1}
        m_Offset: {x: 0, y: 0}
    - Texture2D_A32DA024:
        m_Texture: {fileID: 2800000, guid: 2aa1e648e6ab7ad40988ea1fe859b452, type: 3}
        m_Scale: {x: 1, y: 1}
        m_Offset: {x: 0, y: 0}
    - Texture2D_C7F88E60:
        m_Texture: {fileID: 2800000, guid: e314ff0121b73544da7388070ae75b31, type: 3}
        m_Scale: {x: 1, y: 1}
        m_Offset: {x: 0, y: 0}
    - Texture2D_CE06FC5C:
        m_Texture: {fileID: 2800000, guid: 0125058ac6a38d246b33483299d70048, type: 3}
        m_Scale: {x: 1, y: 1}
        m_Offset: {x: 0, y: 0}
    - Texture2D_F85FEF46:
        m_Texture: {fileID: 0}
        m_Scale: {x: 1, y: 1}
        m_Offset: {x: 0, y: 0}
    - Texture2D_FD1AEDD9:
        m_Texture: {fileID: 2800000, guid: c952f513957a2c2478fae133341cbe53, type: 3}
        m_Scale: {x: 1, y: 1}
        m_Offset: {x: 0, y: 0}
    m_Floats:
    - Vector1_54A4A594: 0
    - Vector1_663D9C02: 1.5
    - Vector1_9A0357DF: 1
    - Vector1_B11A500B: 0.9
    - Vector1_BE3DBDE6: 0.76
    - Vector1_DDF7DC15: 0.9
    - Vector1_EB14986F: 0
    m_Colors:
    - Color_928ADAC2: {r: 0.11333334, g: 0.63666666, b: 0.5733333, a: 0}
