%YAML 1.1
%TAG !u! tag:unity3d.com,2011:
--- !u!114 &11400000
MonoBehaviour:
  m_ObjectHideFlags: 0
  m_CorrespondingSourceObject: {fileID: 0}
  m_PrefabInstance: {fileID: 0}
  m_PrefabAsset: {fileID: 0}
  m_GameObject: {fileID: 0}
  m_Enabled: 1
  m_EditorHideFlags: 0
  m_Script: {fileID: 11500000, guid: 361e230a357657240b5f1feacde2a210, type: 3}
  m_Name: MT_Decel_Charge
  m_EditorClassIdentifier: 
  Time: 0
  OrbitTag: 6
  Target: {fileID: 11400000, guid: 320bf9f104a0b814481ec323e5fa955a, type: 2}
  MovementDecelerationCurve:
    serializedVersion: 2
    m_Curve:
    - serializedVersion: 3
      time: 0
      value: 19.013226
      inSlope: -30.000002
      outSlope: -30.000002
      tangentMode: 0
      weightedMode: 0
      inWeight: 0.33333334
      outWeight: 0.33333334
    - serializedVersion: 3
      time: 0.63377416
      value: 0
      inSlope: -30.000002
      outSlope: -30.000002
      tangentMode: 0
      weightedMode: 0
      inWeight: 0.33333334
      outWeight: 0.33333334
    m_PreInfinity: 2
    m_PostInfinity: 2
    m_RotationOrder: 4
  Deceleration: 30
  LowSpeed: 0
