%YAML 1.1
%TAG !u! tag:unity3d.com,2011:
--- !u!114 &11400000
MonoBehaviour:
  m_ObjectHideFlags: 0
  m_CorrespondingSourceObject: {fileID: 0}
  m_PrefabInstance: {fileID: 0}
  m_PrefabAsset: {fileID: 0}
  m_GameObject: {fileID: 0}
  m_Enabled: 1
  m_EditorHideFlags: 0
  m_Script: {fileID: 11500000, guid: c5c80ca171136c24ba4cb364c1883eab, type: 3}
  m_Name: 3D_Boun_Chase
  m_EditorClassIdentifier: 
  Time: 0.0168493
  OrbitTag: 0
  impactFreeze: 0
  shakeMagnitude: 5
  impulseDeltaTime: 0.03
  kinetikEnergyLoss: 0.23
  surfaceFriction: 0.05
  strength: 0
  duration: 0
  speed: 0
  noisePercent: 0
  dampingPercent: 0
  rotationPercent: 0
