%YAML 1.1
%TAG !u! tag:unity3d.com,2011:
--- !u!21 &2100000
Material:
  serializedVersion: 6
  m_ObjectHideFlags: 0
  m_CorrespondingSourceObject: {fileID: 0}
  m_PrefabInstance: {fileID: 0}
  m_PrefabAsset: {fileID: 0}
  m_Name: NewClouds2_Mat
  m_Shader: {fileID: 4800000, guid: 4153dd983d6bfeb42bc41791392b00f3, type: 3}
  m_ShaderKeywords: 
  m_LightmapFlags: 4
  m_EnableInstancingVariants: 0
  m_DoubleSidedGI: 0
  m_CustomRenderQueue: -1
  stringTagMap:
    MotionVector: User
  disabledShaderPasses:
  - MOTIONVECTORS
  m_SavedProperties:
    serializedVersion: 3
    m_TexEnvs: []
    m_Floats:
    - Vector1_1245587D: 4.32
    - Vector1_1F258ECB: 0
    - Vector1_50DCEA20: 0.06
    - Vector1_6642FA1C: 519
    - Vector1_6A112397: 0.09
    - Vector1_72603D5A: 0.9
    - Vector1_742F243A: -0.18
    - Vector1_7D67B347: 0.27
    - Vector1_828AA966: 6.9
    - Vector1_A09568FA: 6
    - Vector1_AAE278D5: 2.99
    - Vector1_D2EDE3A7: 6.4
    - Vector1_E3371B04: 0.11
    - Vector1_F997F91D: 0.05
    - Vector1_FEF9B246: 14
    m_Colors:
    - Color_518716D8: {r: 10.432949, g: 2.0756652, b: 0, a: 1}
    - Color_702AB34C: {r: 0.08627451, g: 0.08627451, b: 0.11372549, a: 1}
    - Vector4_5537CA4E: {r: 1, g: 1, b: 1, a: 2.16}
    - Vector4_E855A2D9: {r: 0.05, g: 1.31, b: -1, a: 0.5}
