%YAML 1.1
%TAG !u! tag:unity3d.com,2011:
--- !u!114 &11400000
MonoBehaviour:
  m_ObjectHideFlags: 0
  m_CorrespondingSourceObject: {fileID: 0}
  m_PrefabInstance: {fileID: 0}
  m_PrefabAsset: {fileID: 0}
  m_GameObject: {fileID: 0}
  m_Enabled: 1
  m_EditorHideFlags: 0
  m_Script: {fileID: 11500000, guid: 0dda940d478a7eb4bb92d72f09cd8bf2, type: 3}
  m_Name: GZ_Rec_Charge
  m_EditorClassIdentifier: 
  Time: 2
  OrbitTag: 0
  LowSpeed: 0
