%YAML 1.1
%TAG !u! tag:unity3d.com,2011:
--- !u!114 &11400000
MonoBehaviour:
  m_ObjectHideFlags: 0
  m_CorrespondingSourceObject: {fileID: 0}
  m_PrefabInstance: {fileID: 0}
  m_PrefabAsset: {fileID: 0}
  m_GameObject: {fileID: 0}
  m_Enabled: 1
  m_EditorHideFlags: 0
  m_Script: {fileID: 11500000, guid: 8dbe9f0acc746784ea129145cf014e3d, type: 3}
  m_Name: MT_Ant_Awake
  m_EditorClassIdentifier: 
  Time: 0
  OrbitTag: 2
  Loops: 1
  InfinteLoops: 0
