%YAML 1.1
%TAG !u! tag:unity3d.com,2011:
--- !u!114 &11400000
MonoBehaviour:
  m_ObjectHideFlags: 0
  m_CorrespondingSourceObject: {fileID: 0}
  m_PrefabInstance: {fileID: 0}
  m_PrefabAsset: {fileID: 0}
  m_GameObject: {fileID: 0}
  m_Enabled: 1
  m_EditorHideFlags: 0
  m_Script: {fileID: 11500000, guid: 8244197f0b2597142b63fce960bc9007, type: 3}
  m_Name: AnticipationAttackOrbitData 3
  m_EditorClassIdentifier: 
  finalRadius: 6
  radiusEase: 1
  AnticipationTime: 1
  AnticipationRevolutions: 1
  isVertical: 0
  OrbitCenterRotationSpeed: 180
  TargetYOffest: 1
  isTargetingDistance: 1
