%YAML 1.1
%TAG !u! tag:unity3d.com,2011:
--- !u!114 &11400000
MonoBehaviour:
  m_ObjectHideFlags: 0
  m_CorrespondingSourceObject: {fileID: 0}
  m_PrefabInstance: {fileID: 0}
  m_PrefabAsset: {fileID: 0}
  m_GameObject: {fileID: 0}
  m_Enabled: 1
  m_EditorHideFlags: 0
  m_Script: {fileID: 11500000, guid: 1d17c46e7f06be5418ac472b02394793, type: 3}
  m_Name: RevolutionOrbitData
  m_EditorClassIdentifier: 
  initialRadius: 3.5
  StartingAngle: 180
  revolutionPerSeconds: -1.5
  angularMinVelocity: 720
